#include<stdio.h>
#include<conio.h>
main()
{
      float primer,segundo,divi;
      printf("OPERACION ARITMETICA DIVISION DE DOS NUMEROS");
          printf("\n");
          printf("\n");
    printf("ingresa primer numero:");
        scanf("%f",&primer);
    printf("\n");
     printf("ingresa segundo numero:");
    scanf("%f",&segundo);
    printf("\n");
    if(segundo!= 0)
    {
      divi=primer/segundo;
      printf("tu division es:%.2f",divi);
      }
      else
      { 
           printf("ERROR");           
        
          };
                 
                 getch();
}
 
