#include<stdio.h>
#include<conio.h>
#include <stdlib.h>




main()

{ 
  int x;
    printf("CALCULA E IMPRIME LOS CUADRADOS DEL 1 AL 15");
          printf("\n");
           printf("===========================================");
          
          for(x=1;x <=15;x=x+1)
            {   
                
                printf("\n numero:%d su cuadrado es %d ",x,x*x); 
                  
                             }
            
               getch();
               }